gene_name	direction	major_ct
SNAP91	down	neuron
SETX	down	neuron
GARNL3	down	neuron
CPLANE1	down	neuron
RAB28	down	neuron
TCERG1	down	neuron
TAOK3	down	neuron
MON2	down	neuron
ITFG1	down	neuron
ARID4B	down	neuron
KDM5A	down	neuron
SMG1	down	neuron
ANKRD36C	down	neuron
GOLGA4	down	neuron
DOP1A	down	neuron
RFX7	down	neuron
MYRIP	down	neuron
DIS3L2	down	neuron
FAF1	down	neuron
RBM25	down	neuron
SCAPER	down	neuron
CCDC88A	down	neuron
PTPRT	down	neuron
RPTOR	down	neuron
NPIPB5	down	neuron
SMCHD1	down	neuron
TNRC6C	down	neuron
FAM120B	down	neuron
MCF2L2	down	neuron
MCCC1	down	neuron
DMD	down	neuron
RB1CC1	down	neuron
PCNT	down	neuron
CCDC144A	down	neuron
AGBL4	down	neuron
OAZ1	up	neuron
SELENOW	up	neuron
